transcript
# Compile of instruction_memory.v was successful.
# Compile of RAM.v was successful.
# 2 compiles, 0 failed with no errors.
vsim engr468_16_bit_processor.processor_32_bit_test
# vsim engr468_16_bit_processor.processor_32_bit_test 
# Start time: 14:14:33 on Nov 26,2020
# Loading engr468_16_bit_processor.processor_32_bit_test
# Loading engr468_16_bit_processor.processor_32_bit
# Loading engr468_16_bit_processor.ram
# Loading engr468_16_bit_processor.instruction_memory
# Loading engr468_16_bit_processor.program_counter
# Loading engr468_16_bit_processor.mem_control_unit
# Loading engr468_16_bit_processor.memory_control
# Loading engr468_16_bit_processor.addr_bus_mux
# Loading engr468_16_bit_processor.ldr_mux
# Loading engr468_16_bit_processor.register_banks
# Loading engr468_16_bit_processor.MUX
# Loading engr468_16_bit_processor.DECODER
# Loading engr468_16_bit_processor.ALU
# ** Warning: (vsim-2685) [TFMPC] - Too few port connections for 'ctrl1'.  Expected 11, found 10.
#    Time: 0 ps  Iteration: 0  Instance: /processor_32_bit_test/processor1/ctrl1 File: C:/Users/Kyle/Desktop/Engineering_Year_5/ENGR 468 Advanced Digital Systems Design/Project/32-bit-RISC-processor/processor_32_bit.v Line: 67
# ** Warning: (vsim-3722) C:/Users/Kyle/Desktop/Engineering_Year_5/ENGR 468 Advanced Digital Systems Design/Project/32-bit-RISC-processor/processor_32_bit.v(67): [TFMPC] - Missing connection for port 'pc'.
run
#                    0Testing processor
#                    0 instructionsss=xxxxxxxxxxxxxxxxxxxxxxxxxxxxxxxx
#                    3 instructionsss=00000110001010000000000001100000
#                   15 instructionsss=00000110000010000000000000100000
#                   25 instructionsss=00000110001000000000000001000000
#                   35 instructionsss=00000110000100000000000000110000
#                   45 instructionsss=00000000000110010000100000000000
#                   55 instructionsss=00001001001000010000000010000000
# ** Note: $finish    : C:/Users/Kyle/Desktop/Engineering_Year_5/ENGR 468 Advanced Digital Systems Design/Project/32-bit-RISC-processor/processor_32_bit_test.v(26)
#    Time: 57 ps  Iteration: 0  Instance: /processor_32_bit_test
# 1
# Break in Module processor_32_bit_test at C:/Users/Kyle/Desktop/Engineering_Year_5/ENGR 468 Advanced Digital Systems Design/Project/32-bit-RISC-processor/processor_32_bit_test.v line 26
# Compile of processor_32_bit_test.v was successful.
# Compile of instruction_memory.v was successful.
# Compile of Register_Banks.v was successful.
# 2 compiles, 0 failed with no errors.
vsim engr468_16_bit_processor.processor_32_bit_test
# End time: 14:22:03 on Nov 26,2020, Elapsed time: 0:07:30
# Errors: 0, Warnings: 6
# vsim engr468_16_bit_processor.processor_32_bit_test 
# Start time: 14:22:03 on Nov 26,2020
# Loading engr468_16_bit_processor.processor_32_bit_test
# Loading engr468_16_bit_processor.processor_32_bit
# Loading engr468_16_bit_processor.ram
# Loading engr468_16_bit_processor.instruction_memory
# Loading engr468_16_bit_processor.program_counter
# Loading engr468_16_bit_processor.mem_control_unit
# Loading engr468_16_bit_processor.memory_control
# Loading engr468_16_bit_processor.addr_bus_mux
# Loading engr468_16_bit_processor.ldr_mux
# Loading engr468_16_bit_processor.register_banks
# Loading engr468_16_bit_processor.MUX
# Loading engr468_16_bit_processor.DECODER
# Loading engr468_16_bit_processor.ALU
# ** Warning: (vsim-2685) [TFMPC] - Too few port connections for 'ctrl1'.  Expected 11, found 10.
#    Time: 0 ps  Iteration: 0  Instance: /processor_32_bit_test/processor1/ctrl1 File: C:/Users/Kyle/Desktop/Engineering_Year_5/ENGR 468 Advanced Digital Systems Design/Project/32-bit-RISC-processor/processor_32_bit.v Line: 67
# ** Warning: (vsim-3722) C:/Users/Kyle/Desktop/Engineering_Year_5/ENGR 468 Advanced Digital Systems Design/Project/32-bit-RISC-processor/processor_32_bit.v(67): [TFMPC] - Missing connection for port 'pc'.
run
#                    0Testing processor
#                    0 R1=         x || R2=         x || R3=         x || R4=         x || R5=         x || R6=         x || R7=         x 
#                   25 R1=         x || R2=        12 || R3=         x || R4=         x || R5=         x || R6=         x || R7=         x 
#                   35 R1=         x || R2=        12 || R3=         x || R4=         x || R5=        12 || R6=         x || R7=         x 
#                   45 R1=         x || R2=        12 || R3=        12 || R4=         x || R5=        12 || R6=         x || R7=         x 
#                   55 R1=         x || R2=        12 || R3=        12 || R4=        12 || R5=        12 || R6=         x || R7=         x 
#                   65 R1=         x || R2=        12 || R3=        12 || R4=        12 || R5=        24 || R6=         x || R7=         x 
#                   75 R1=         x || R2=        12 || R3=        12 || R4=        12 || R5=        24 || R6=         0 || R7=         x 
#                   95 R1=4294967272 || R2=        12 || R3=        12 || R4=        12 || R5=        24 || R6=         0 || R7=         x 
# Compile of Register_Banks.v was successful.
vsim engr468_16_bit_processor.processor_32_bit_test
# End time: 14:29:59 on Nov 26,2020, Elapsed time: 0:07:56
# Errors: 0, Warnings: 4
# vsim engr468_16_bit_processor.processor_32_bit_test 
# Start time: 14:29:59 on Nov 26,2020
# Loading engr468_16_bit_processor.processor_32_bit_test
# Loading engr468_16_bit_processor.processor_32_bit
# Loading engr468_16_bit_processor.ram
# Loading engr468_16_bit_processor.instruction_memory
# Loading engr468_16_bit_processor.program_counter
# Loading engr468_16_bit_processor.mem_control_unit
# Loading engr468_16_bit_processor.memory_control
# Loading engr468_16_bit_processor.addr_bus_mux
# Loading engr468_16_bit_processor.ldr_mux
# Loading engr468_16_bit_processor.register_banks
# Loading engr468_16_bit_processor.MUX
# Loading engr468_16_bit_processor.DECODER
# Loading engr468_16_bit_processor.ALU
# ** Warning: (vsim-2685) [TFMPC] - Too few port connections for 'ctrl1'.  Expected 11, found 10.
#    Time: 0 ps  Iteration: 0  Instance: /processor_32_bit_test/processor1/ctrl1 File: C:/Users/Kyle/Desktop/Engineering_Year_5/ENGR 468 Advanced Digital Systems Design/Project/32-bit-RISC-processor/processor_32_bit.v Line: 67
# ** Warning: (vsim-3722) C:/Users/Kyle/Desktop/Engineering_Year_5/ENGR 468 Advanced Digital Systems Design/Project/32-bit-RISC-processor/processor_32_bit.v(67): [TFMPC] - Missing connection for port 'pc'.
run
#                    0Testing processor
#                    0 R1=xxxxxxxxxxxxxxxxxxxxxxxxxxxxxxxx || R2=xxxxxxxxxxxxxxxxxxxxxxxxxxxxxxxx || R3=xxxxxxxxxxxxxxxxxxxxxxxxxxxxxxxx || R4=xxxxxxxxxxxxxxxxxxxxxxxxxxxxxxxx || R5=xxxxxxxxxxxxxxxxxxxxxxxxxxxxxxxx || R6=xxxxxxxxxxxxxxxxxxxxxxxxxxxxxxxx || R7=xxxxxxxxxxxxxxxxxxxxxxxxxxxxxxxx 
#                   25 R1=xxxxxxxxxxxxxxxxxxxxxxxxxxxxxxxx || R2=00000000000000000000000000001100 || R3=xxxxxxxxxxxxxxxxxxxxxxxxxxxxxxxx || R4=xxxxxxxxxxxxxxxxxxxxxxxxxxxxxxxx || R5=xxxxxxxxxxxxxxxxxxxxxxxxxxxxxxxx || R6=xxxxxxxxxxxxxxxxxxxxxxxxxxxxxxxx || R7=xxxxxxxxxxxxxxxxxxxxxxxxxxxxxxxx 
#                   35 R1=xxxxxxxxxxxxxxxxxxxxxxxxxxxxxxxx || R2=00000000000000000000000000001100 || R3=xxxxxxxxxxxxxxxxxxxxxxxxxxxxxxxx || R4=xxxxxxxxxxxxxxxxxxxxxxxxxxxxxxxx || R5=00000000000000000000000000001100 || R6=xxxxxxxxxxxxxxxxxxxxxxxxxxxxxxxx || R7=xxxxxxxxxxxxxxxxxxxxxxxxxxxxxxxx 
#                   45 R1=xxxxxxxxxxxxxxxxxxxxxxxxxxxxxxxx || R2=00000000000000000000000000001100 || R3=00000000000000000000000000001100 || R4=xxxxxxxxxxxxxxxxxxxxxxxxxxxxxxxx || R5=00000000000000000000000000001100 || R6=xxxxxxxxxxxxxxxxxxxxxxxxxxxxxxxx || R7=xxxxxxxxxxxxxxxxxxxxxxxxxxxxxxxx 
#                   55 R1=xxxxxxxxxxxxxxxxxxxxxxxxxxxxxxxx || R2=00000000000000000000000000001100 || R3=00000000000000000000000000001100 || R4=00000000000000000000000000001100 || R5=00000000000000000000000000001100 || R6=xxxxxxxxxxxxxxxxxxxxxxxxxxxxxxxx || R7=xxxxxxxxxxxxxxxxxxxxxxxxxxxxxxxx 
#                   65 R1=xxxxxxxxxxxxxxxxxxxxxxxxxxxxxxxx || R2=00000000000000000000000000001100 || R3=00000000000000000000000000001100 || R4=00000000000000000000000000001100 || R5=00000000000000000000000000011000 || R6=xxxxxxxxxxxxxxxxxxxxxxxxxxxxxxxx || R7=xxxxxxxxxxxxxxxxxxxxxxxxxxxxxxxx 
#                   75 R1=xxxxxxxxxxxxxxxxxxxxxxxxxxxxxxxx || R2=00000000000000000000000000001100 || R3=00000000000000000000000000001100 || R4=00000000000000000000000000001100 || R5=00000000000000000000000000011000 || R6=00000000000000000000000000000000 || R7=xxxxxxxxxxxxxxxxxxxxxxxxxxxxxxxx 
#                   95 R1=11111111111111111111111111101000 || R2=00000000000000000000000000001100 || R3=00000000000000000000000000001100 || R4=00000000000000000000000000001100 || R5=00000000000000000000000000011000 || R6=00000000000000000000000000000000 || R7=xxxxxxxxxxxxxxxxxxxxxxxxxxxxxxxx 
# Compile of Register_Banks.v was successful.
vsim engr468_16_bit_processor.processor_32_bit_test
# End time: 14:30:43 on Nov 26,2020, Elapsed time: 0:00:44
# Errors: 0, Warnings: 4
# vsim engr468_16_bit_processor.processor_32_bit_test 
# Start time: 14:30:43 on Nov 26,2020
# Loading engr468_16_bit_processor.processor_32_bit_test
# Loading engr468_16_bit_processor.processor_32_bit
# Loading engr468_16_bit_processor.ram
# Loading engr468_16_bit_processor.instruction_memory
# Loading engr468_16_bit_processor.program_counter
# Loading engr468_16_bit_processor.mem_control_unit
# Loading engr468_16_bit_processor.memory_control
# Loading engr468_16_bit_processor.addr_bus_mux
# Loading engr468_16_bit_processor.ldr_mux
# Loading engr468_16_bit_processor.register_banks
# Loading engr468_16_bit_processor.MUX
# Loading engr468_16_bit_processor.DECODER
# Loading engr468_16_bit_processor.ALU
# ** Warning: (vsim-2685) [TFMPC] - Too few port connections for 'ctrl1'.  Expected 11, found 10.
#    Time: 0 ps  Iteration: 0  Instance: /processor_32_bit_test/processor1/ctrl1 File: C:/Users/Kyle/Desktop/Engineering_Year_5/ENGR 468 Advanced Digital Systems Design/Project/32-bit-RISC-processor/processor_32_bit.v Line: 67
# ** Warning: (vsim-3722) C:/Users/Kyle/Desktop/Engineering_Year_5/ENGR 468 Advanced Digital Systems Design/Project/32-bit-RISC-processor/processor_32_bit.v(67): [TFMPC] - Missing connection for port 'pc'.
run
#                    0Testing processor
#                    0 R1=         x || R2=         x || R3=         x || R4=         x || R5=         x || R6=         x || R7=         x 
#                   25 R1=         x || R2=        12 || R3=         x || R4=         x || R5=         x || R6=         x || R7=         x 
#                   35 R1=         x || R2=        12 || R3=         x || R4=         x || R5=        12 || R6=         x || R7=         x 
#                   45 R1=         x || R2=        12 || R3=        12 || R4=         x || R5=        12 || R6=         x || R7=         x 
#                   55 R1=         x || R2=        12 || R3=        12 || R4=        12 || R5=        12 || R6=         x || R7=         x 
#                   65 R1=         x || R2=        12 || R3=        12 || R4=        12 || R5=        24 || R6=         x || R7=         x 
#                   75 R1=         x || R2=        12 || R3=        12 || R4=        12 || R5=        24 || R6=         0 || R7=         x 
#                   95 R1=4294967272 || R2=        12 || R3=        12 || R4=        12 || R5=        24 || R6=         0 || R7=         x 
# Compile of Register_Banks.v was successful.
vsim engr468_16_bit_processor.processor_32_bit_test
# End time: 14:45:53 on Nov 26,2020, Elapsed time: 0:15:10
# Errors: 0, Warnings: 4
# vsim engr468_16_bit_processor.processor_32_bit_test 
# Start time: 14:45:53 on Nov 26,2020
# Loading engr468_16_bit_processor.processor_32_bit_test
# Loading engr468_16_bit_processor.processor_32_bit
# Loading engr468_16_bit_processor.ram
# Loading engr468_16_bit_processor.instruction_memory
# Loading engr468_16_bit_processor.program_counter
# Loading engr468_16_bit_processor.mem_control_unit
# Loading engr468_16_bit_processor.memory_control
# Loading engr468_16_bit_processor.addr_bus_mux
# Loading engr468_16_bit_processor.ldr_mux
# Loading engr468_16_bit_processor.register_banks
# Loading engr468_16_bit_processor.MUX
# Loading engr468_16_bit_processor.DECODER
# Loading engr468_16_bit_processor.ALU
# ** Warning: (vsim-2685) [TFMPC] - Too few port connections for 'ctrl1'.  Expected 11, found 10.
#    Time: 0 ps  Iteration: 0  Instance: /processor_32_bit_test/processor1/ctrl1 File: C:/Users/Kyle/Desktop/Engineering_Year_5/ENGR 468 Advanced Digital Systems Design/Project/32-bit-RISC-processor/processor_32_bit.v Line: 67
# ** Warning: (vsim-3722) C:/Users/Kyle/Desktop/Engineering_Year_5/ENGR 468 Advanced Digital Systems Design/Project/32-bit-RISC-processor/processor_32_bit.v(67): [TFMPC] - Missing connection for port 'pc'.
run
#                    0Testing processor
#                    0 enable=    x
#                    5 enable=   32
#                   25 enable=    2
#                   35 enable=   16
#                   45 enable=    4
#                   55 enable=    8
#                   65 enable=   16
#                   75 enable=   32
#                   85 enable=  128
#                   95 enable=    1
# Compile of Register_Banks.v was successful.
vsim engr468_16_bit_processor.processor_32_bit_test
# End time: 14:47:24 on Nov 26,2020, Elapsed time: 0:01:31
# Errors: 0, Warnings: 4
# vsim engr468_16_bit_processor.processor_32_bit_test 
# Start time: 14:47:24 on Nov 26,2020
# Loading engr468_16_bit_processor.processor_32_bit_test
# Loading engr468_16_bit_processor.processor_32_bit
# Loading engr468_16_bit_processor.ram
# Loading engr468_16_bit_processor.instruction_memory
# Loading engr468_16_bit_processor.program_counter
# Loading engr468_16_bit_processor.mem_control_unit
# Loading engr468_16_bit_processor.memory_control
# Loading engr468_16_bit_processor.addr_bus_mux
# Loading engr468_16_bit_processor.ldr_mux
# Loading engr468_16_bit_processor.register_banks
# Loading engr468_16_bit_processor.MUX
# Loading engr468_16_bit_processor.DECODER
# Loading engr468_16_bit_processor.ALU
# ** Warning: (vsim-2685) [TFMPC] - Too few port connections for 'ctrl1'.  Expected 11, found 10.
#    Time: 0 ps  Iteration: 0  Instance: /processor_32_bit_test/processor1/ctrl1 File: C:/Users/Kyle/Desktop/Engineering_Year_5/ENGR 468 Advanced Digital Systems Design/Project/32-bit-RISC-processor/processor_32_bit.v Line: 67
# ** Warning: (vsim-3722) C:/Users/Kyle/Desktop/Engineering_Year_5/ENGR 468 Advanced Digital Systems Design/Project/32-bit-RISC-processor/processor_32_bit.v(67): [TFMPC] - Missing connection for port 'pc'.
run
#                    0Testing processor
#                    0 destination= x
#                    5 destination= 5
#                   25 destination= 1
#                   35 destination= 4
#                   45 destination= 2
#                   55 destination= 3
#                   65 destination= 4
#                   75 destination= 5
#                   85 destination= 7
#                   95 destination= 0
# Compile of Register_Banks.v failed with 1 errors.
# Compile of Register_Banks.v failed with 1 errors.
# Compile of Register_Banks.v was successful.
vsim engr468_16_bit_processor.processor_32_bit_test
# End time: 14:56:23 on Nov 26,2020, Elapsed time: 0:08:59
# Errors: 0, Warnings: 6
# vsim engr468_16_bit_processor.processor_32_bit_test 
# Start time: 14:56:23 on Nov 26,2020
# Loading engr468_16_bit_processor.processor_32_bit_test
# Loading engr468_16_bit_processor.processor_32_bit
# Loading engr468_16_bit_processor.ram
# Loading engr468_16_bit_processor.instruction_memory
# Loading engr468_16_bit_processor.program_counter
# Loading engr468_16_bit_processor.mem_control_unit
# Loading engr468_16_bit_processor.memory_control
# Loading engr468_16_bit_processor.addr_bus_mux
# Loading engr468_16_bit_processor.ldr_mux
# Loading engr468_16_bit_processor.register_banks
# Loading engr468_16_bit_processor.MUX
# Loading engr468_16_bit_processor.DECODER
# Loading engr468_16_bit_processor.ALU
# ** Warning: (vsim-2685) [TFMPC] - Too few port connections for 'ctrl1'.  Expected 11, found 10.
#    Time: 0 ps  Iteration: 0  Instance: /processor_32_bit_test/processor1/ctrl1 File: C:/Users/Kyle/Desktop/Engineering_Year_5/ENGR 468 Advanced Digital Systems Design/Project/32-bit-RISC-processor/processor_32_bit.v Line: 67
# ** Warning: (vsim-3722) C:/Users/Kyle/Desktop/Engineering_Year_5/ENGR 468 Advanced Digital Systems Design/Project/32-bit-RISC-processor/processor_32_bit.v(67): [TFMPC] - Missing connection for port 'pc'.
run
#                    0Testing processor
#                    0 R0=         x || R1=         x || R2=         x || R3=         x || R4=         x || R5=         x || R6=         x || R7=         x
#                   25 R0=         x || R1=        12 || R2=         x || R3=         x || R4=         x || R5=         x || R6=         x || R7=         x
#                   35 R0=         x || R1=        12 || R2=         x || R3=         x || R4=        12 || R5=         x || R6=         x || R7=         x
#                   45 R0=         x || R1=        12 || R2=        12 || R3=         x || R4=        12 || R5=         x || R6=         x || R7=         x
#                   55 R0=         x || R1=        12 || R2=        12 || R3=        12 || R4=        12 || R5=         x || R6=         x || R7=         x
#                   65 R0=         x || R1=        12 || R2=        12 || R3=        12 || R4=        24 || R5=         x || R6=         x || R7=         x
#                   75 R0=         x || R1=        12 || R2=        12 || R3=        12 || R4=        24 || R5=         0 || R6=         x || R7=         x
#                   85 R0=         x || R1=        12 || R2=        12 || R3=        12 || R4=        24 || R5=         0 || R6=         x || R7=       144
#                   95 R0=4294967272 || R1=        12 || R2=        12 || R3=        12 || R4=        24 || R5=         0 || R6=         x || R7=       144
# Compile of Register_Banks.v was successful.
vsim engr468_16_bit_processor.processor_32_bit_test
# End time: 14:59:38 on Nov 26,2020, Elapsed time: 0:03:15
# Errors: 0, Warnings: 4
# vsim engr468_16_bit_processor.processor_32_bit_test 
# Start time: 14:59:38 on Nov 26,2020
# Loading engr468_16_bit_processor.processor_32_bit_test
# Loading engr468_16_bit_processor.processor_32_bit
# Loading engr468_16_bit_processor.ram
# Loading engr468_16_bit_processor.instruction_memory
# Loading engr468_16_bit_processor.program_counter
# Loading engr468_16_bit_processor.mem_control_unit
# Loading engr468_16_bit_processor.memory_control
# Loading engr468_16_bit_processor.addr_bus_mux
# Loading engr468_16_bit_processor.ldr_mux
# Loading engr468_16_bit_processor.register_banks
# Loading engr468_16_bit_processor.MUX
# Loading engr468_16_bit_processor.DECODER
# Loading engr468_16_bit_processor.ALU
# ** Warning: (vsim-2685) [TFMPC] - Too few port connections for 'ctrl1'.  Expected 11, found 10.
#    Time: 0 ps  Iteration: 0  Instance: /processor_32_bit_test/processor1/ctrl1 File: C:/Users/Kyle/Desktop/Engineering_Year_5/ENGR 468 Advanced Digital Systems Design/Project/32-bit-RISC-processor/processor_32_bit.v Line: 67
# ** Warning: (vsim-3722) C:/Users/Kyle/Desktop/Engineering_Year_5/ENGR 468 Advanced Digital Systems Design/Project/32-bit-RISC-processor/processor_32_bit.v(67): [TFMPC] - Missing connection for port 'pc'.
run
#                    0Testing processor
#                    0 destination= x || enable=    x || R5=         x 
#                    5 destination= 5 || enable=   32 || R5=         x 
#                   25 destination= 1 || enable=    2 || R5=         x 
#                   35 destination= 4 || enable=   16 || R5=         x 
#                   45 destination= 2 || enable=    4 || R5=         x 
#                   55 destination= 3 || enable=    8 || R5=         x 
#                   65 destination= 4 || enable=   16 || R5=         x 
#                   75 destination= 5 || enable=   32 || R5=         0 
#                   85 destination= 7 || enable=  128 || R5=         0 
#                   95 destination= 0 || enable=    1 || R5=         0 
# Compile of Register_Banks.v was successful.
vsim engr468_16_bit_processor.processor_32_bit_test
# End time: 15:01:29 on Nov 26,2020, Elapsed time: 0:01:51
# Errors: 0, Warnings: 4
# vsim engr468_16_bit_processor.processor_32_bit_test 
# Start time: 15:01:29 on Nov 26,2020
# Loading engr468_16_bit_processor.processor_32_bit_test
# Loading engr468_16_bit_processor.processor_32_bit
# Loading engr468_16_bit_processor.ram
# Loading engr468_16_bit_processor.instruction_memory
# Loading engr468_16_bit_processor.program_counter
# Loading engr468_16_bit_processor.mem_control_unit
# Loading engr468_16_bit_processor.memory_control
# Loading engr468_16_bit_processor.addr_bus_mux
# Loading engr468_16_bit_processor.ldr_mux
# Loading engr468_16_bit_processor.register_banks
# Loading engr468_16_bit_processor.MUX
# Loading engr468_16_bit_processor.DECODER
# Loading engr468_16_bit_processor.ALU
# ** Warning: (vsim-2685) [TFMPC] - Too few port connections for 'ctrl1'.  Expected 11, found 10.
#    Time: 0 ps  Iteration: 0  Instance: /processor_32_bit_test/processor1/ctrl1 File: C:/Users/Kyle/Desktop/Engineering_Year_5/ENGR 468 Advanced Digital Systems Design/Project/32-bit-RISC-processor/processor_32_bit.v Line: 67
# ** Warning: (vsim-3722) C:/Users/Kyle/Desktop/Engineering_Year_5/ENGR 468 Advanced Digital Systems Design/Project/32-bit-RISC-processor/processor_32_bit.v(67): [TFMPC] - Missing connection for port 'pc'.
run
#                    0Testing processor
#                    0 destination= x || enable=    x || R5=         x || ldr_mux_in=         x
#                    5 destination= 5 || enable=   32 || R5=         x || ldr_mux_in=        12
#                   25 destination= 1 || enable=    2 || R5=         x || ldr_mux_in=        12
#                   35 destination= 4 || enable=   16 || R5=         x || ldr_mux_in=        12
#                   45 destination= 2 || enable=    4 || R5=         x || ldr_mux_in=        12
#                   55 destination= 3 || enable=    8 || R5=         x || ldr_mux_in=        24
#                   65 destination= 4 || enable=   16 || R5=         x || ldr_mux_in=         0
#                   75 destination= 5 || enable=   32 || R5=         0 || ldr_mux_in=       144
#                   85 destination= 7 || enable=  128 || R5=         0 || ldr_mux_in=4294967272
#                   95 destination= 0 || enable=    1 || R5=         0 || ldr_mux_in=        12
# Compile of Register_Banks.v was successful.
vsim engr468_16_bit_processor.processor_32_bit_test
# End time: 15:09:57 on Nov 26,2020, Elapsed time: 0:08:28
# Errors: 0, Warnings: 4
# vsim engr468_16_bit_processor.processor_32_bit_test 
# Start time: 15:09:57 on Nov 26,2020
# Loading engr468_16_bit_processor.processor_32_bit_test
# Loading engr468_16_bit_processor.processor_32_bit
# Loading engr468_16_bit_processor.ram
# Loading engr468_16_bit_processor.instruction_memory
# Loading engr468_16_bit_processor.program_counter
# Loading engr468_16_bit_processor.mem_control_unit
# Loading engr468_16_bit_processor.memory_control
# Loading engr468_16_bit_processor.addr_bus_mux
# Loading engr468_16_bit_processor.ldr_mux
# Loading engr468_16_bit_processor.register_banks
# Loading engr468_16_bit_processor.MUX
# Loading engr468_16_bit_processor.DECODER
# Loading engr468_16_bit_processor.ALU
# ** Warning: (vsim-2685) [TFMPC] - Too few port connections for 'ctrl1'.  Expected 11, found 10.
#    Time: 0 ps  Iteration: 0  Instance: /processor_32_bit_test/processor1/ctrl1 File: C:/Users/Kyle/Desktop/Engineering_Year_5/ENGR 468 Advanced Digital Systems Design/Project/32-bit-RISC-processor/processor_32_bit.v Line: 67
# ** Warning: (vsim-3722) C:/Users/Kyle/Desktop/Engineering_Year_5/ENGR 468 Advanced Digital Systems Design/Project/32-bit-RISC-processor/processor_32_bit.v(67): [TFMPC] - Missing connection for port 'pc'.
run
#                    0Testing processor
#                    0 destination= x || enable=xxxxxxxxxxxxxxxx || R5=         x || ldr_mux_in=         x
#                    5 destination= 5 || enable=0000000000100000 || R5=         x || ldr_mux_in=        12
#                   25 destination= 1 || enable=0000000000000010 || R5=         x || ldr_mux_in=        12
#                   35 destination= 4 || enable=0000000000010000 || R5=         x || ldr_mux_in=        12
#                   45 destination= 2 || enable=0000000000000100 || R5=         x || ldr_mux_in=        12
#                   55 destination= 3 || enable=0000000000001000 || R5=         x || ldr_mux_in=        24
#                   65 destination= 4 || enable=0000000000010000 || R5=         x || ldr_mux_in=         0
#                   75 destination= 5 || enable=0000000000100000 || R5=         0 || ldr_mux_in=       144
#                   85 destination= 7 || enable=0000000010000000 || R5=         0 || ldr_mux_in=4294967272
#                   95 destination= 0 || enable=0000000000000001 || R5=         0 || ldr_mux_in=        12
# Compile of Register_Banks.v was successful.
vsim engr468_16_bit_processor.processor_32_bit_test
# End time: 15:12:42 on Nov 26,2020, Elapsed time: 0:02:45
# Errors: 0, Warnings: 4
# vsim engr468_16_bit_processor.processor_32_bit_test 
# Start time: 15:12:42 on Nov 26,2020
# Loading engr468_16_bit_processor.processor_32_bit_test
# Loading engr468_16_bit_processor.processor_32_bit
# Loading engr468_16_bit_processor.ram
# Loading engr468_16_bit_processor.instruction_memory
# Loading engr468_16_bit_processor.program_counter
# Loading engr468_16_bit_processor.mem_control_unit
# Loading engr468_16_bit_processor.memory_control
# Loading engr468_16_bit_processor.addr_bus_mux
# Loading engr468_16_bit_processor.ldr_mux
# Loading engr468_16_bit_processor.register_banks
# Loading engr468_16_bit_processor.MUX
# Loading engr468_16_bit_processor.DECODER
# Loading engr468_16_bit_processor.ALU
# ** Warning: (vsim-2685) [TFMPC] - Too few port connections for 'ctrl1'.  Expected 11, found 10.
#    Time: 0 ps  Iteration: 0  Instance: /processor_32_bit_test/processor1/ctrl1 File: C:/Users/Kyle/Desktop/Engineering_Year_5/ENGR 468 Advanced Digital Systems Design/Project/32-bit-RISC-processor/processor_32_bit.v Line: 67
# ** Warning: (vsim-3722) C:/Users/Kyle/Desktop/Engineering_Year_5/ENGR 468 Advanced Digital Systems Design/Project/32-bit-RISC-processor/processor_32_bit.v(67): [TFMPC] - Missing connection for port 'pc'.
run
#                    0Testing processor
#                    0 destination= x || enable=xxxxxxxxxxxxxxxx || R5=         x || ldr_mux_in=         x
# this is R5
#                    5 destination= 5 || enable=0000000000100000 || R5=         x || ldr_mux_in=        12
# this is R1
#                   25 destination= 1 || enable=0000000000000010 || R5=         x || ldr_mux_in=        12
#                   35 destination= 4 || enable=0000000000010000 || R5=         x || ldr_mux_in=        12
#                   45 destination= 2 || enable=0000000000000100 || R5=         x || ldr_mux_in=        12
#                   55 destination= 3 || enable=0000000000001000 || R5=         x || ldr_mux_in=        24
#                   65 destination= 4 || enable=0000000000010000 || R5=         x || ldr_mux_in=         0
# this is R5
#                   75 destination= 5 || enable=0000000000100000 || R5=         0 || ldr_mux_in=       144
#                   85 destination= 7 || enable=0000000010000000 || R5=         0 || ldr_mux_in=4294967272
#                   95 destination= 0 || enable=0000000000000001 || R5=         0 || ldr_mux_in=        12
# Compile of addr_bus_mux.v was successful.
# Compile of ALU.v was successful.
# Compile of ALU_test.v was successful.
# Compile of flag_register.v was successful.
# Compile of instruction_memory.v was successful.
# Compile of ldr_mux.v was successful.
# Compile of mem_control_unit.v was successful.
# Compile of memory_and_instruction_fetch_test.v was successful.
# Compile of memory_control.v was successful.
# Compile of memory_unit_test.v was successful.
# Compile of processor_32_bit.v was successful.
# Compile of program_counter.v was successful.
# Compile of RAM.v was successful.
# Compile of RAM_test.v was successful.
# Compile of RB_test.v was successful.
# Compile of Register_Banks.v was successful.
vsim engr468_16_bit_processor.processor_32_bit_test
# End time: 15:17:02 on Nov 26,2020, Elapsed time: 0:04:20
# Errors: 0, Warnings: 3
# vsim engr468_16_bit_processor.processor_32_bit_test 
# Start time: 15:17:02 on Nov 26,2020
# Loading engr468_16_bit_processor.processor_32_bit_test
# Loading engr468_16_bit_processor.processor_32_bit
# Loading engr468_16_bit_processor.ram
# Loading engr468_16_bit_processor.instruction_memory
# Loading engr468_16_bit_processor.program_counter
# Loading engr468_16_bit_processor.mem_control_unit
# Loading engr468_16_bit_processor.memory_control
# Loading engr468_16_bit_processor.addr_bus_mux
# Loading engr468_16_bit_processor.ldr_mux
# Loading engr468_16_bit_processor.register_banks
# Loading engr468_16_bit_processor.MUX
# Loading engr468_16_bit_processor.DECODER
# Loading engr468_16_bit_processor.ALU
# ** Warning: (vsim-2685) [TFMPC] - Too few port connections for 'ctrl1'.  Expected 11, found 10.
#    Time: 0 ps  Iteration: 0  Instance: /processor_32_bit_test/processor1/ctrl1 File: C:/Users/Kyle/Desktop/Engineering_Year_5/ENGR 468 Advanced Digital Systems Design/Project/32-bit-RISC-processor/processor_32_bit.v Line: 67
# ** Warning: (vsim-3722) C:/Users/Kyle/Desktop/Engineering_Year_5/ENGR 468 Advanced Digital Systems Design/Project/32-bit-RISC-processor/processor_32_bit.v(67): [TFMPC] - Missing connection for port 'pc'.
# Compile of processor_32_bit_test.v was successful.
# 17 compiles, 0 failed with no errors.
run
#                    0Testing processor
#                    0 destination= x || enable=xxxxxxxxxxxxxxxx || R5=         x || ldr_mux_in=         x
#                    5
# this is R5
#                    5 destination= 5 || enable=0000000000100000 || R5=         x || ldr_mux_in=        12
#                   25
# this is R1
#                   25 destination= 1 || enable=0000000000000010 || R5=         x || ldr_mux_in=        12
#                   35 destination= 4 || enable=0000000000010000 || R5=         x || ldr_mux_in=        12
#                   45 destination= 2 || enable=0000000000000100 || R5=         x || ldr_mux_in=        12
#                   55 destination= 3 || enable=0000000000001000 || R5=         x || ldr_mux_in=        24
#                   65 destination= 4 || enable=0000000000010000 || R5=         x || ldr_mux_in=         0
#                   75
# this is R5
#                   75 destination= 5 || enable=0000000000100000 || R5=         0 || ldr_mux_in=       144
#                   85 destination= 7 || enable=0000000010000000 || R5=         0 || ldr_mux_in=4294967272
#                   95 destination= 0 || enable=0000000000000001 || R5=         0 || ldr_mux_in=        12
# Compile of Register_Banks.v was successful.
# Compile of Register_Banks.v was successful.
vsim engr468_16_bit_processor.processor_32_bit_test
# End time: 15:18:29 on Nov 26,2020, Elapsed time: 0:01:27
# Errors: 0, Warnings: 6
# vsim engr468_16_bit_processor.processor_32_bit_test 
# Start time: 15:18:29 on Nov 26,2020
# Loading engr468_16_bit_processor.processor_32_bit_test
# Loading engr468_16_bit_processor.processor_32_bit
# Loading engr468_16_bit_processor.ram
# Loading engr468_16_bit_processor.instruction_memory
# Loading engr468_16_bit_processor.program_counter
# Loading engr468_16_bit_processor.mem_control_unit
# Loading engr468_16_bit_processor.memory_control
# Loading engr468_16_bit_processor.addr_bus_mux
# Loading engr468_16_bit_processor.ldr_mux
# Loading engr468_16_bit_processor.register_banks
# Loading engr468_16_bit_processor.MUX
# Loading engr468_16_bit_processor.DECODER
